Wildfires Project
…
The following objects are masked from 'package:stats':

    chisq.test, fisher.test

fires <- fires |>
  janitor::clean_names()

fires <- fires |>
  rename(size = fire_size,
         year = fire_year,
         cause = stat_cause_descr,
         reporting_agency = nwcg_reporting_agency)
fires

# A tibble: 1,880,465 × 10
   fire_name   size state latitude longitude  year discovery_date   contain_date
   <chr>      <dbl> <chr>    <dbl>     <dbl> <int> <chr>            <chr>       
 1 FOUNTAIN    0.1  CA        40.0     -121.  2005 2005-02-02 00:0… 2005-02-02 …
 2 PIGEON      0.25 CA        38.9     -120.  2004 2004-05-12 00:0… 2004-05-12 …
 3 SLACK       0.1  CA        39.0     -121.  2004 2004-05-31 00:0… 2004-05-31 …
 4 DEER        0.1  CA        38.6     -120.  2004 2004-06-28 00:0… 2004-07-03 …
 5 STEVENOT    0.1  CA        38.6     -120.  2004 2004-06-28 00:0… 2004-07-03 …
 6 HIDDEN      0.1  CA        38.6     -120.  2004 2004-06-30 00:0… 2004-07-01 …
 7 FORK        0.1  CA        38.7     -120.  2004 2004-07-01 00:0… 2004-07-02 …
 8 SLATE       0.8  CA        41.0     -122.  2005 2005-03-08 00:0… 2005-03-08 …
 9 SHASTA      1    CA        41.2     -122.  2005 2005-03-15 00:0… 2005-03-15 …
10 TANGLEFOOT  0.1  CA        38.5     -120.  2004 2004-07-01 00:0… 2004-07-02 …
# ℹ 1,880,455 more rows
# ℹ 2 more variables: cause <chr>, reporting_agency <chr>
…
3) From the plot below, we can see that fire season typically occurs during June, July, August, and September, when the hottest temperatures kick in.

fires3

# A tibble: 54,093 × 10
   fire_name    state   size  year month discovery_date latitude longitude cause
   <chr>        <chr>  <dbl> <int> <chr> <date>            <dbl>     <dbl> <chr>
 1 Inowak       AK    6.07e5  1997 06    1997-06-25         62.0     -157. Ligh…
 2 Long Draw    OR    5.58e5  2012 07    2012-07-08         42.4     -118. Ligh…
 3 Wallow       AZ    5.38e5  2011 05    2011-05-29         33.6     -109. Camp…
 4 Boundary     AK    5.38e5  2004 06    2004-06-13         65.3     -147. Ligh…
 5 Minto Flats… AK    5.17e5  2009 06    2009-06-21         64.7     -150. Ligh…
 6 Biscuit      OR    5.00e5  2002 07    2002-07-13         42.0     -124. Ligh…
 7 Dall City    AK    4.83e5  2004 07    2004-07-06         66.3     -150. Ligh…
 8 Hwy 152      TX    4.80e5  2006 03    2006-03-12         35.7     -101. Miss…
 9 Billy Ck     AK    4.64e5  2004 06    2004-06-18         63.8     -144. Ligh…
10 Holloway     OR    4.61e5  2012 08    2012-08-05         42.0     -118. Ligh…
# ℹ 54,083 more rows
# ℹ 1 more variable: reporting_agency <chr>
…
